Download Google Trend Data — ts_gtrends • trendecon
…
Multiple keywords or multiple categories can be specified, but not both.

    See also

    gtrendsR::gtrends(), browseVignettes("intro")

Online tutorial for analyzing google trends in R

    Examples

x <- ts_gtrends("Rezession")
#> Downloading data for today+5-y
x
#> # A tibble: 261 x 2
#>    time       value
#>    <date>     <int>
#>  1 2015-06-28     2
#>  2 2015-07-05     5
#>  3 2015-07-12     2
#>  4 2015-07-19     3
#>  5 2015-07-26     2
#>  6 2015-08-02     2
#>  7 2015-08-09     3
#>  8 2015-08-16     6
#>  9 2015-08-23     8
#> 10 2015-08-30     3
#> # … with 251 more rows
…
